{
  "docs": [
    {
      "links": {
        "patch": {
          "small": "https://images2.imgbox.com/3c/0e/T8iJcSN3_o.png",
          "large": "https://images2.imgbox.com/40/e3/GypSkayF_o.png"
        }
      },
      "rocket": "5e9d0d95eda69955f709d1eb",
      "success": false,
      "flight_number": 1,
      "name": "FalconSat1",
      "date_utc": "2006-03-24T22:30:00.000Z",
      "date_local": "2006-03-25T10:30:00+12:00",
      "id": "5eb87cd9ffd86e000604b32a"
    },
    {
      "links": {
        "patch": {
          "small": "https://images2.imgbox.com/3c/0e/T8iJcSN3_o.png",
          "large": "https://images2.imgbox.com/40/e3/GypSkayF_o.png"
        }
      },
      "rocket": "5e9d0d95eda69955f709d1eb",
      "success": false,
      "flight_number": 1,
      "name": "FalconSat2",
      "date_utc": "2006-03-24T22:30:00.000Z",
      "date_local": "2006-03-25T10:30:00+12:00",
      "id": "5eb87cd9ffd86e000604b32a"
    },
    {
      "links": {
        "patch": {
          "small": "https://images2.imgbox.com/3c/0e/T8iJcSN3_o.png",
          "large": "https://images2.imgbox.com/40/e3/GypSkayF_o.png"
        }
      },
      "rocket": "5e9d0d95eda69955f709d1eb",
      "success": false,
      "flight_number": 1,
      "name": "FalconSat3",
      "date_utc": "2006-03-24T22:30:00.000Z",
      "date_local": "2006-03-25T10:30:00+12:00",
      "id": "5eb87cd9ffd86e000604b32a"
    },
    {
      "links": {
        "patch": {
          "small": "https://images2.imgbox.com/3c/0e/T8iJcSN3_o.png",
          "large": "https://images2.imgbox.com/40/e3/GypSkayF_o.png"
        }
      },
      "rocket": "5e9d0d95eda69955f709d1eb",
      "success": false,
      "flight_number": 1,
      "name": "FalconSat4",
      "date_utc": "2006-03-24T22:30:00.000Z",
      "date_local": "2006-03-25T10:30:00+12:00",
      "id": "5eb87cd9ffd86e000604b32a"
    },
    {
      "links": {
        "patch": {
          "small": "https://images2.imgbox.com/3c/0e/T8iJcSN3_o.png",
          "large": "https://images2.imgbox.com/40/e3/GypSkayF_o.png"
        }
      },
      "rocket": "5e9d0d95eda69955f709d1eb",
      "success": false,
      "flight_number": 1,
      "name": "FalconSat5",
      "date_utc": "2006-03-24T22:30:00.000Z",
      "date_local": "2006-03-25T10:30:00+12:00",
      "id": "5eb87cd9ffd86e000604b32a"
    }
  ],
  "totalDocs": 175,
  "offset": 0,
  "limit": 10,
  "totalPages": 18,
  "page": 1,
  "pagingCounter": 1,
  "hasPrevPage": false,
  "hasNextPage": true,
  "prevPage": null,
  "nextPage": 2
}